{
  "project_info": {
    "project_number": "910105182030",
    "firebase_url": "https://hcifinalproject-626d0.firebaseio.com",
    "project_id": "hcifinalproject-626d0",
    "storage_bucket": "hcifinalproject-626d0.appspot.com"
  },
  "client": [
    {
      "client_info": {
        "mobilesdk_app_id": "1:910105182030:android:58fa0504c44371cd",
        "android_client_info": {
          "package_name": "com.example.raafs.hci_finalproject"
        }
      },
      "oauth_client": [
        {
          "client_id": "910105182030-qkbipt24545l8sija9m9tr26p71fkmbu.apps.googleusercontent.com",
          "client_type": 1,
          "android_info": {
            "package_name": "com.example.raafs.hci_finalproject",
            "certificate_hash": "30a70be62cffd6315c3ca1828b8c6d3d7bb643ab"
          }
        },
        {
          "client_id": "910105182030-khaf01v3eojdgn7rj61lhb0gpvq0535p.apps.googleusercontent.com",
          "client_type": 1,
          "android_info": {
            "package_name": "com.example.raafs.hci_finalproject",
            "certificate_hash": "8594381d445e5e11e0291b18cd820e1ec89001b0"
          }
        },
        {
          "client_id": "910105182030-k3mctmiq9bh4t1di2t87ljur3mjd9usr.apps.googleusercontent.com",
          "client_type": 1,
          "android_info": {
            "package_name": "com.example.raafs.hci_finalproject",
            "certificate_hash": "c1c87dffcd7433bf5fd675eb12af0a0ceda2a772"
          }
        },
        {
          "client_id": "910105182030-1jndaji5jevg5o0pksesvnaorbghdjor.apps.googleusercontent.com",
          "client_type": 3
        }
      ],
      "api_key": [
        {
          "current_key": "AIzaSyC139sx7DY2-bEDpoVVYRw7NiorJcFB0rk"
        }
      ],
      "services": {
        "analytics_service": {
          "status": 1
        },
        "appinvite_service": {
          "status": 2,
          "other_platform_oauth_client": [
            {
              "client_id": "910105182030-1jndaji5jevg5o0pksesvnaorbghdjor.apps.googleusercontent.com",
              "client_type": 3
            }
          ]
        },
        "ads_service": {
          "status": 2
        }
      }
    }
  ],
  "configuration_version": "1"
}